…
    ##            name  height   mass  ...                films vehicles starships
    ## 53  Yarael Poof   264.0    NaN  ...   The Phantom Menace       []        []
    ## 77      Tarfful   234.0  136.0  ...  Revenge of the Sith       []        []
    ## 
    ## [2 rows x 14 columns]

### Sorting

``` r
# R
df %>% filter(!is.na(mass)) %>% arrange(desc(sex), desc(mass)) %>% select(sex, mass)
```

    ## # A tibble: 59 x 2
    ##    sex    mass
    ##    <chr> <dbl>
    ##  1 none    140
    ##  2 none     75
    ##  3 none     32
    ##  4 none     32
    ##  5 male    159
    ##  6 male    136
    ##  7 male    136
    ##  8 male    120
    ##  9 male    113
    ## 10 male    112
    ## # ... with 49 more rows
…
### Renaming Column

``` r
# R
df %>% rename(hw = homeworld) %>% select(hw)
```

    ## # A tibble: 87 x 1
    ##    hw      
    ##    <chr>   
    ##  1 Tatooine
    ##  2 Tatooine
    ##  3 Naboo   
    ##  4 Tatooine
    ##  5 Alderaan
    ##  6 Tatooine
    ##  7 Tatooine
    ##  8 Tatooine
    ##  9 Tatooine
    ## 10 Stewjon 
    ## # ... with 77 more rows
…
